<svg width="21" height="21" viewBox="0 0 21 21" xmlns="http://www.w3.org/2000/svg">
  <path d="M11.4775 12.7665L11.2111 13.0327V9.77281C11.2111 9.53171 11.1154 9.30048 10.9449 9.12999C10.7744 8.9595 10.5431 8.86372 10.302 8.86372C10.0609 8.86372 9.8297 8.9595 9.65921 9.12999C9.48873 9.30048 9.39295 9.53171 9.39295 9.77281V13.0327L9.12658 12.7665C8.95513 12.6009 8.72549 12.5092 8.48713 12.5113C8.24877 12.5134 8.02076 12.609 7.8522 12.7775C7.68365 12.9461 7.58804 13.1741 7.58597 13.4124C7.5839 13.6508 7.67553 13.8804 7.84113 14.0519L9.65931 15.8701C9.7437 15.9545 9.84389 16.0215 9.95417 16.0672C10.0645 16.1129 10.1827 16.1364 10.302 16.1364C10.4214 16.1364 10.5396 16.1129 10.6499 16.0672C10.7602 16.0215 10.8604 15.9545 10.9448 15.8701L12.7629 14.0519C12.9285 13.8804 13.0202 13.6508 13.0181 13.4124C13.016 13.1741 12.9204 12.9461 12.7519 12.7775C12.5833 12.609 12.3553 12.5134 12.1169 12.5113C11.8786 12.5092 11.649 12.6009 11.4775 12.7665Z"/>
  <path d="M15.7565 6.13638H13.6267C13.2684 6.13741 12.9133 6.06737 12.5822 5.9303C12.2511 5.79323 11.9504 5.59186 11.6976 5.33784L10.1919 3.83129C9.77073 3.40785 9.26974 3.07216 8.71795 2.84364C8.16615 2.61513 7.57451 2.49833 6.97727 2.50002L4.84746 2.50002C3.64236 2.50144 2.48703 2.98079 1.6349 3.83292C0.782772 4.68505 0.303421 5.84038 0.302002 7.04547L0.302002 14.3182C0.303421 15.5233 0.782772 16.6786 1.6349 17.5308C2.48703 18.3829 3.64236 18.8622 4.84746 18.8637L15.7565 18.8637C16.9616 18.8622 18.117 18.3829 18.9691 17.5308C19.8212 16.6786 20.3006 15.5233 20.302 14.3182V10.6818C20.3006 9.47674 19.8212 8.32141 18.9691 7.46928C18.117 6.61715 16.9616 6.1378 15.7565 6.13638ZM18.4838 14.3182C18.483 15.0413 18.1954 15.7345 17.6841 16.2458C17.1729 16.7571 16.4796 17.0447 15.7565 17.0455H4.84746C4.12438 17.0447 3.43115 16.7571 2.91986 16.2458C2.40857 15.7345 2.12098 15.0413 2.12018 14.3182L2.12018 7.04547C2.12098 6.3224 2.40857 5.62917 2.91986 5.11788C3.43115 4.60659 4.12438 4.31899 4.84746 4.3182H6.97727C7.33565 4.31717 7.69067 4.38721 8.02179 4.52428C8.35292 4.66135 8.65357 4.86272 8.90637 5.11675L10.4121 6.62329C10.8333 7.04673 11.3343 7.38243 11.8861 7.61094C12.4379 7.83945 13.0295 7.95625 13.6267 7.95456H15.7565C16.4796 7.95536 17.1729 8.24295 17.6841 8.75424C18.1954 9.26553 18.483 9.95876 18.4838 10.6818V14.3182Z"/>
</svg>
