<svg width="50" height="50" viewBox="0 0 50 50" xmlns="http://www.w3.org/2000/svg">
  <path d="M12.8065 26.63H18.2873V49.1936C18.2873 49.639 18.6482 50 19.0937 50H28.3866C28.8321 50 29.1931 49.639 29.1931 49.1936V26.7363H35.4937C35.9034 26.7363 36.2481 26.4289 36.2948 26.0219L37.2518 17.7152C37.2781 17.4866 37.2056 17.2577 37.0527 17.0863C36.8997 16.9147 36.6806 16.8165 36.4508 16.8165H29.1934V11.6094C29.1934 10.0397 30.0385 9.24371 31.7056 9.24371C31.9432 9.24371 36.4508 9.24371 36.4508 9.24371C36.8963 9.24371 37.2573 8.88258 37.2573 8.43726V0.812419C37.2573 0.366935 36.8963 0.00596774 36.4508 0.00596774H29.9113C29.8652 0.00370968 29.7627 0 29.6118 0C28.4771 0 24.5331 0.222742 21.4176 3.08887C17.9656 6.265 18.4455 10.0679 18.5602 10.7273V16.8163H12.8065C12.361 16.8163 12 17.1773 12 17.6227V25.8234C12 26.2689 12.361 26.63 12.8065 26.63Z"/>
</svg>
