<svg width="15" height="13" viewBox="0 0 15 13" xmlns="http://www.w3.org/2000/svg">
  <g>
    <path d="M8.43772 10.3953C8.95503 10.3953 9.37464 10.8158 9.37464 11.3331C9.37464 11.8513 8.95503 12.271 8.43772 12.271H6.56204C6.04473 12.271 5.62512 11.8513 5.62512 11.3331C5.62512 10.8158 6.04473 10.3953 6.56204 10.3953H8.43772ZM11.2495 5.70784C11.7677 5.70784 12.1873 6.12745 12.1873 6.64568C12.1873 7.16299 11.7677 7.58353 11.2495 7.58353H3.74958C3.23228 7.58353 2.81267 7.16299 2.81267 6.64568C2.81267 6.12745 3.23228 5.70784 3.74958 5.70784H11.2495ZM14.0622 1.02042C14.5804 1.02042 15 1.44002 15 1.95826C15 2.47557 14.5804 2.89517 14.0622 2.89517H0.937842C0.419606 2.89517 0 2.47557 0 1.95826C0 1.44002 0.419606 1.02042 0.937842 1.02042H14.0622Z"/>
  </g>
</svg>
